2017-10-30 09:41:01.027 INFO  (main) [   ] o.e.j.s.Server jetty-9.3.14.v20161028
2017-10-30 09:41:01.240 INFO  (main) [   ] o.a.s.s.SolrDispatchFilter  ___      _       Welcome to Apache Solr™ version 7.0.1
2017-10-30 09:41:01.240 INFO  (main) [   ] o.a.s.s.SolrDispatchFilter / __| ___| |_ _   Starting in standalone mode on port 8983
2017-10-30 09:41:01.240 INFO  (main) [   ] o.a.s.s.SolrDispatchFilter \__ \/ _ \ | '_|  Install dir: /home/pierre/workspace/rpu-images-solr/solr, Default config dir: /home/pierre/workspace/rpu-images-solr/solr/server/solr/configsets/_default/conf
2017-10-30 09:41:01.251 INFO  (main) [   ] o.a.s.s.SolrDispatchFilter |___/\___/_|_|    Start time: 2017-10-30T09:41:01.241Z
2017-10-30 09:41:01.251 INFO  (main) [   ] o.a.s.s.StartupLoggingUtils Property solr.log.muteconsole given. Muting ConsoleAppender named CONSOLE
2017-10-30 09:41:01.265 INFO  (main) [   ] o.a.s.c.SolrResourceLoader Using system property solr.solr.home: /home/pierre/workspace/rpu-images-solr/solr/server/solr
2017-10-30 09:41:01.270 INFO  (main) [   ] o.a.s.c.SolrXmlConfig Loading container configuration from /home/pierre/workspace/rpu-images-solr/solr/server/solr/solr.xml
2017-10-30 09:41:01.641 INFO  (main) [   ] o.a.s.c.CorePropertiesLocator Found 1 core definitions underneath /home/pierre/workspace/rpu-images-solr/solr/server/solr
2017-10-30 09:41:01.644 INFO  (main) [   ] o.a.s.c.CorePropertiesLocator Cores are: [image]
2017-10-30 09:41:01.647 INFO  (coreLoadExecutor-6-thread-1) [   ] o.a.s.c.TransientSolrCoreCacheDefault Allocating transient cache for 2147483647 transient cores
2017-10-30 09:41:01.677 INFO  (main) [   ] o.e.j.s.Server Started @973ms
2017-10-30 09:41:01.691 INFO  (coreLoadExecutor-6-thread-1) [   x:image] o.a.s.c.SolrResourceLoader [image] Added 51 libs to classloader, from paths: [/home/pierre/workspace/rpu-images-solr/solr/contrib/clustering/lib, /home/pierre/workspace/rpu-images-solr/solr/contrib/extraction/lib, /home/pierre/workspace/rpu-images-solr/solr/contrib/langid/lib, /home/pierre/workspace/rpu-images-solr/solr/contrib/velocity/lib, /home/pierre/workspace/rpu-images-solr/solr/dist]
2017-10-30 09:41:01.827 INFO  (coreLoadExecutor-6-thread-1) [   x:image] o.a.s.c.SolrConfig Using Lucene MatchVersion: 7.0.1
2017-10-30 09:41:01.924 INFO  (coreLoadExecutor-6-thread-1) [   x:image] o.a.s.s.IndexSchema [image] Schema name=default-config
2017-10-30 09:41:02.300 INFO  (coreLoadExecutor-6-thread-1) [   x:image] o.a.s.s.IndexSchema Loaded schema default-config/1.6 with uniqueid field id
2017-10-30 09:41:02.319 INFO  (coreLoadExecutor-6-thread-1) [   x:image] o.a.s.c.CoreContainer Creating SolrCore 'image' using configuration from instancedir /home/pierre/workspace/rpu-images-solr/solr/server/solr/image, trusted=true
2017-10-30 09:41:02.346 INFO  (coreLoadExecutor-6-thread-1) [   x:image] o.a.s.c.SolrCore solr.RecoveryStrategy.Builder
2017-10-30 09:41:02.350 INFO  (coreLoadExecutor-6-thread-1) [   x:image] o.a.s.c.SolrCore [[image] ] Opening new SolrCore at [/home/pierre/workspace/rpu-images-solr/solr/server/solr/image], dataDir=[/home/pierre/workspace/rpu-images-solr/solr/server/solr/image/data/]
2017-10-30 09:41:02.372 INFO  (coreLoadExecutor-6-thread-1) [   x:image] o.a.s.r.XSLTResponseWriter xsltCacheLifetimeSeconds=5
2017-10-30 09:41:02.622 INFO  (coreLoadExecutor-6-thread-1) [   x:image] o.a.s.u.UpdateHandler Using UpdateLog implementation: org.apache.solr.update.UpdateLog
2017-10-30 09:41:02.623 INFO  (coreLoadExecutor-6-thread-1) [   x:image] o.a.s.u.UpdateLog Initializing UpdateLog: dataDir= defaultSyncLevel=FLUSH numRecordsToKeep=100 maxNumLogsToKeep=10 numVersionBuckets=65536
2017-10-30 09:41:02.642 INFO  (coreLoadExecutor-6-thread-1) [   x:image] o.a.s.u.CommitTracker Hard AutoCommit: if uncommited for 15000ms; 
2017-10-30 09:41:02.642 INFO  (coreLoadExecutor-6-thread-1) [   x:image] o.a.s.u.CommitTracker Soft AutoCommit: disabled
2017-10-30 09:41:02.743 INFO  (coreLoadExecutor-6-thread-1) [   x:image] o.a.s.s.SolrIndexSearcher Opening [Searcher@6e583461[image] main]
2017-10-30 09:41:02.756 INFO  (coreLoadExecutor-6-thread-1) [   x:image] o.a.s.r.ManagedResourceStorage File-based storage initialized to use dir: /home/pierre/workspace/rpu-images-solr/solr/server/solr/image/conf
2017-10-30 09:41:02.776 INFO  (coreLoadExecutor-6-thread-1) [   x:image] o.a.s.h.c.SpellCheckComponent Initializing spell checkers
2017-10-30 09:41:02.787 INFO  (coreLoadExecutor-6-thread-1) [   x:image] o.a.s.s.DirectSolrSpellChecker init: {name=default,field=_text_,classname=solr.DirectSolrSpellChecker,distanceMeasure=internal,accuracy=0.5,maxEdits=2,minPrefix=1,maxInspections=5,minQueryLength=4,maxQueryFrequency=0.01}
2017-10-30 09:41:02.805 INFO  (coreLoadExecutor-6-thread-1) [   x:image] o.a.s.h.ReplicationHandler Commits will be reserved for  10000
2017-10-30 09:41:02.854 INFO  (searcherExecutor-7-thread-1-processing-x:image) [   x:image] o.a.s.c.QuerySenderListener QuerySenderListener sending requests to Searcher@6e583461[image] main{ExitableDirectoryReader(UninvertingDirectoryReader(Uninverting(_1om(7.0.1):C946) Uninverting(_1on(7.0.1):C1) Uninverting(_1oo(7.0.1):C1)))}
2017-10-30 09:41:02.854 INFO  (searcherExecutor-7-thread-1-processing-x:image) [   x:image] o.a.s.c.QuerySenderListener QuerySenderListener done.
2017-10-30 09:41:02.854 INFO  (searcherExecutor-7-thread-1-processing-x:image) [   x:image] o.a.s.h.c.SpellCheckComponent Loading spell index for spellchecker: default
2017-10-30 09:41:02.860 INFO  (searcherExecutor-7-thread-1-processing-x:image) [   x:image] o.a.s.c.SolrCore [image] Registered new searcher Searcher@6e583461[image] main{ExitableDirectoryReader(UninvertingDirectoryReader(Uninverting(_1om(7.0.1):C946) Uninverting(_1on(7.0.1):C1) Uninverting(_1oo(7.0.1):C1)))}
2017-10-30 09:41:42.571 INFO  (qtp128526626-20) [   x:image] o.a.s.c.S.Request [image]  webapp=/solr path=/select params={q=*:*&facet.limit=10&facet.field=Univers&facet.field=Famille&facet.field=SousFamille&facet.field=SousSousFamille&facet.field=Marque&start=50&facet.mincount=1&rows=50&facet=true&wt=javabin&version=2} hits=948 status=0 QTime=44
2017-10-30 09:45:28.496 INFO  (qtp128526626-17) [   x:image] o.a.s.c.S.Request [image]  webapp=/solr path=/select params={q=*:*&facet.limit=10&facet.field=Univers&facet.field=Famille&facet.field=SousFamille&facet.field=SousSousFamille&facet.field=Marque&start=50&facet.mincount=1&rows=50&facet=true&wt=javabin&version=2} hits=948 status=0 QTime=2
2017-10-30 09:46:41.972 INFO  (qtp128526626-19) [   x:image] o.a.s.c.S.Request [image]  webapp=/solr path=/select params={q=*:*&facet.limit=10&facet.field=Univers&facet.field=Famille&facet.field=SousFamille&facet.field=SousSousFamille&facet.field=Marque&start=50&facet.mincount=1&rows=50&facet=true&wt=javabin&version=2} hits=948 status=0 QTime=2
2017-10-30 09:47:19.616 INFO  (qtp128526626-22) [   x:image] o.a.s.c.S.Request [image]  webapp=/solr path=/select params={q=*:*&facet.limit=10&facet.field=Univers&facet.field=Famille&facet.field=SousFamille&facet.field=SousSousFamille&facet.field=Marque&start=50&facet.mincount=1&rows=50&facet=true&wt=javabin&version=2} hits=948 status=0 QTime=1
2017-10-30 09:50:10.828 INFO  (qtp128526626-18) [   x:image] o.a.s.c.S.Request [image]  webapp=/solr path=/select params={q=*:*&facet.limit=10&facet.field=Univers&facet.field=Famille&facet.field=SousFamille&facet.field=SousSousFamille&facet.field=Marque&start=50&facet.mincount=1&rows=50&facet=true&wt=javabin&version=2} hits=948 status=0 QTime=1
2017-10-30 09:52:09.931 INFO  (qtp128526626-20) [   x:image] o.a.s.c.S.Request [image]  webapp=/solr path=/select params={q=*:*&facet.limit=10&facet.field=Univers&facet.field=Famille&facet.field=SousFamille&facet.field=SousSousFamille&facet.field=Marque&start=50&facet.mincount=1&rows=50&facet=true&wt=javabin&version=2} hits=948 status=0 QTime=1
2017-10-30 09:53:09.388 INFO  (qtp128526626-18) [   x:image] o.a.s.c.S.Request [image]  webapp=/solr path=/select params={q=*:*&facet.limit=10&facet.field=Univers&facet.field=Famille&facet.field=SousFamille&facet.field=SousSousFamille&facet.field=Marque&start=50&facet.mincount=1&rows=50&facet=true&wt=javabin&version=2} hits=948 status=0 QTime=1
2017-10-30 09:58:26.440 INFO  (qtp128526626-18) [   x:image] o.a.s.c.S.Request [image]  webapp=/solr path=/select params={q=*:*&facet.limit=10&facet.field=Univers&facet.field=Famille&facet.field=SousFamille&facet.field=SousSousFamille&facet.field=Marque&start=50&facet.mincount=1&rows=50&facet=true&wt=javabin&version=2} hits=948 status=0 QTime=1
2017-10-30 09:58:54.114 INFO  (qtp128526626-16) [   x:image] o.a.s.c.S.Request [image]  webapp=/solr path=/select params={q=*:*&facet.limit=10&facet.field=Univers&facet.field=Famille&facet.field=SousFamille&facet.field=SousSousFamille&facet.field=Marque&start=50&facet.mincount=1&rows=50&facet=true&wt=javabin&version=2} hits=948 status=0 QTime=1
2017-10-30 09:59:06.420 INFO  (qtp128526626-13) [   x:image] o.a.s.c.S.Request [image]  webapp=/solr path=/select params={q=*:*&facet.limit=10&facet.field=Univers&facet.field=Famille&facet.field=SousFamille&facet.field=SousSousFamille&facet.field=Marque&start=50&facet.mincount=1&rows=50&facet=true&wt=javabin&version=2} hits=948 status=0 QTime=5
2017-10-30 09:59:12.922 INFO  (qtp128526626-15) [   x:image] o.a.s.c.S.Request [image]  webapp=/solr path=/select params={q=*:*&facet.limit=10&facet.field=Univers&facet.field=Famille&facet.field=SousFamille&facet.field=SousSousFamille&facet.field=Marque&start=50&facet.mincount=1&rows=50&facet=true&wt=javabin&version=2} hits=948 status=0 QTime=2
2017-10-30 09:59:59.297 INFO  (qtp128526626-16) [   x:image] o.a.s.c.S.Request [image]  webapp=/solr path=/select params={q=*:*&facet.limit=10&facet.field=Univers&facet.field=Famille&facet.field=SousFamille&facet.field=SousSousFamille&facet.field=Marque&start=50&facet.mincount=1&rows=50&facet=true&wt=javabin&version=2} hits=948 status=0 QTime=1
2017-10-30 10:00:40.370 INFO  (qtp128526626-13) [   x:image] o.a.s.c.S.Request [image]  webapp=/solr path=/select params={q=*:*&facet.limit=10&facet.field=Univers&facet.field=Famille&facet.field=SousFamille&facet.field=SousSousFamille&facet.field=Marque&start=50&facet.mincount=1&rows=50&facet=true&wt=javabin&version=2} hits=948 status=0 QTime=1
2017-10-30 10:00:51.215 INFO  (qtp128526626-15) [   x:image] o.a.s.c.S.Request [image]  webapp=/solr path=/select params={q=*:*&facet.limit=10&facet.field=Univers&facet.field=Famille&facet.field=SousFamille&facet.field=SousSousFamille&facet.field=Marque&start=50&facet.mincount=1&rows=50&facet=true&wt=javabin&version=2} hits=948 status=0 QTime=1
2017-10-30 10:01:15.196 INFO  (qtp128526626-16) [   x:image] o.a.s.c.S.Request [image]  webapp=/solr path=/select params={q=*:*&facet.limit=10&facet.field=Univers&facet.field=Famille&facet.field=SousFamille&facet.field=SousSousFamille&facet.field=Marque&start=50&facet.mincount=1&rows=50&facet=true&wt=javabin&version=2} hits=948 status=0 QTime=4
2017-10-30 10:02:25.194 INFO  (qtp128526626-19) [   x:image] o.a.s.c.S.Request [image]  webapp=/solr path=/select params={q=*:*&facet.limit=10&facet.field=Univers&facet.field=Famille&facet.field=SousFamille&facet.field=SousSousFamille&facet.field=Marque&start=50&facet.mincount=1&rows=50&facet=true&wt=javabin&version=2} hits=948 status=0 QTime=0
2017-10-30 10:02:38.606 INFO  (qtp128526626-14) [   x:image] o.a.s.c.S.Request [image]  webapp=/solr path=/select params={q=*:*&facet.limit=10&facet.field=Univers&facet.field=Famille&facet.field=SousFamille&facet.field=SousSousFamille&facet.field=Marque&start=50&facet.mincount=1&rows=50&facet=true&wt=javabin&version=2} hits=948 status=0 QTime=3
2017-10-30 10:03:05.127 INFO  (qtp128526626-16) [   x:image] o.a.s.c.S.Request [image]  webapp=/solr path=/select params={q=*:*&facet.limit=10&facet.field=Univers&facet.field=Famille&facet.field=SousFamille&facet.field=SousSousFamille&facet.field=Marque&start=50&facet.mincount=1&rows=50&facet=true&wt=javabin&version=2} hits=948 status=0 QTime=1
2017-10-30 10:03:08.684 INFO  (qtp128526626-13) [   x:image] o.a.s.c.S.Request [image]  webapp=/solr path=/select params={q=*:*&facet.limit=10&facet.field=Univers&facet.field=Famille&facet.field=SousFamille&facet.field=SousSousFamille&facet.field=Marque&start=50&facet.mincount=1&rows=50&facet=true&wt=javabin&version=2} hits=948 status=0 QTime=3
2017-10-30 10:03:16.538 INFO  (qtp128526626-20) [   x:image] o.a.s.c.S.Request [image]  webapp=/solr path=/select params={q=*:*&facet.limit=10&facet.field=Univers&facet.field=Famille&facet.field=SousFamille&facet.field=SousSousFamille&facet.field=Marque&start=50&facet.mincount=1&rows=50&facet=true&wt=javabin&version=2} hits=948 status=0 QTime=1
2017-10-30 10:04:33.472 INFO  (qtp128526626-22) [   x:image] o.a.s.c.S.Request [image]  webapp=/solr path=/select params={q=*:*&facet.limit=10&facet.field=Univers&facet.field=Famille&facet.field=SousFamille&facet.field=SousSousFamille&facet.field=Marque&start=50&facet.mincount=1&rows=50&facet=true&wt=javabin&version=2} hits=948 status=0 QTime=0
2017-10-30 10:05:01.737 INFO  (qtp128526626-20) [   x:image] o.a.s.c.S.Request [image]  webapp=/solr path=/select params={q=*:*&facet.limit=10&facet.field=Univers&facet.field=Famille&facet.field=SousFamille&facet.field=SousSousFamille&facet.field=Marque&start=50&facet.mincount=1&rows=50&facet=true&wt=javabin&version=2} hits=948 status=0 QTime=1
2017-10-30 10:05:12.639 INFO  (qtp128526626-19) [   x:image] o.a.s.c.S.Request [image]  webapp=/solr path=/select params={q=*:*&facet.limit=10&facet.field=Univers&facet.field=Famille&facet.field=SousFamille&facet.field=SousSousFamille&facet.field=Marque&start=50&facet.mincount=1&rows=50&facet=true&wt=javabin&version=2} hits=948 status=0 QTime=17
2017-10-30 10:05:55.966 INFO  (qtp128526626-18) [   x:image] o.a.s.c.S.Request [image]  webapp=/solr path=/select params={q=*:*&facet.limit=10&facet.field=Univers&facet.field=Famille&facet.field=SousFamille&facet.field=SousSousFamille&facet.field=Marque&start=50&facet.mincount=1&rows=50&facet=true&wt=javabin&version=2} hits=948 status=0 QTime=0
2017-10-30 10:06:01.702 INFO  (qtp128526626-20) [   x:image] o.a.s.c.S.Request [image]  webapp=/solr path=/select params={q=*:*&facet.limit=10&facet.field=Univers&facet.field=Famille&facet.field=SousFamille&facet.field=SousSousFamille&facet.field=Marque&start=50&facet.mincount=1&rows=50&facet=true&wt=javabin&version=2} hits=948 status=0 QTime=2
2017-10-30 10:06:29.904 INFO  (qtp128526626-17) [   x:image] o.a.s.c.S.Request [image]  webapp=/solr path=/select params={q=*:*&facet.limit=10&facet.field=Univers&facet.field=Famille&facet.field=SousFamille&facet.field=SousSousFamille&facet.field=Marque&start=50&facet.mincount=1&rows=50&facet=true&wt=javabin&version=2} hits=948 status=0 QTime=0
2017-10-30 10:06:39.126 INFO  (qtp128526626-18) [   x:image] o.a.s.c.S.Request [image]  webapp=/solr path=/select params={q=*:*&facet.limit=10&facet.field=Univers&facet.field=Famille&facet.field=SousFamille&facet.field=SousSousFamille&facet.field=Marque&start=50&facet.mincount=1&rows=50&facet=true&wt=javabin&version=2} hits=948 status=0 QTime=0
2017-10-30 10:07:00.182 INFO  (qtp128526626-15) [   x:image] o.a.s.c.S.Request [image]  webapp=/solr path=/select params={q=*:*&facet.limit=10&facet.field=Univers&facet.field=Famille&facet.field=SousFamille&facet.field=SousSousFamille&facet.field=Marque&start=50&facet.mincount=1&rows=50&facet=true&wt=javabin&version=2} hits=948 status=0 QTime=0
2017-10-30 10:07:03.288 INFO  (qtp128526626-17) [   x:image] o.a.s.c.S.Request [image]  webapp=/solr path=/select params={q=*:*&facet.limit=10&facet.field=Univers&facet.field=Famille&facet.field=SousFamille&facet.field=SousSousFamille&facet.field=Marque&start=50&facet.mincount=1&rows=50&facet=true&wt=javabin&version=2} hits=948 status=0 QTime=0
2017-10-30 10:07:12.279 INFO  (qtp128526626-16) [   x:image] o.a.s.c.S.Request [image]  webapp=/solr path=/select params={q=*:*&facet.limit=10&facet.field=Univers&facet.field=Famille&facet.field=SousFamille&facet.field=SousSousFamille&facet.field=Marque&start=50&facet.mincount=1&rows=50&facet=true&wt=javabin&version=2} hits=948 status=0 QTime=1
2017-10-30 10:07:13.349 INFO  (qtp128526626-15) [   x:image] o.a.s.c.S.Request [image]  webapp=/solr path=/select params={q=*:*&facet.limit=10&facet.field=Univers&facet.field=Famille&facet.field=SousFamille&facet.field=SousSousFamille&facet.field=Marque&start=50&facet.mincount=1&rows=50&facet=true&wt=javabin&version=2} hits=948 status=0 QTime=1
2017-10-30 10:07:34.767 INFO  (qtp128526626-13) [   x:image] o.a.s.c.S.Request [image]  webapp=/solr path=/select params={q=*:*&facet.limit=10&facet.field=Univers&facet.field=Famille&facet.field=SousFamille&facet.field=SousSousFamille&facet.field=Marque&start=50&facet.mincount=1&rows=50&facet=true&wt=javabin&version=2} hits=948 status=0 QTime=0
2017-10-30 10:07:38.526 INFO  (qtp128526626-16) [   x:image] o.a.s.c.S.Request [image]  webapp=/solr path=/select params={q=*:*&facet.limit=10&facet.field=Univers&facet.field=Famille&facet.field=SousFamille&facet.field=SousSousFamille&facet.field=Marque&start=50&facet.mincount=1&rows=50&facet=true&wt=javabin&version=2} hits=948 status=0 QTime=0
2017-10-30 10:08:21.812 INFO  (qtp128526626-22) [   x:image] o.a.s.c.S.Request [image]  webapp=/solr path=/select params={q=*:*&facet.limit=10&facet.field=Univers&facet.field=Famille&facet.field=SousFamille&facet.field=SousSousFamille&facet.field=Marque&start=50&facet.mincount=1&rows=50&facet=true&wt=javabin&version=2} hits=948 status=0 QTime=1
2017-10-30 10:09:14.226 INFO  (qtp128526626-19) [   x:image] o.a.s.c.S.Request [image]  webapp=/solr path=/select params={q=*:*&facet.limit=10&facet.field=Univers&facet.field=Famille&facet.field=SousFamille&facet.field=SousSousFamille&facet.field=Marque&start=50&facet.mincount=1&rows=50&facet=true&wt=javabin&version=2} hits=948 status=0 QTime=2
2017-10-30 10:09:47.536 INFO  (qtp128526626-16) [   x:image] o.a.s.c.S.Request [image]  webapp=/solr path=/select params={q=*:*&facet.limit=10&facet.field=Univers&facet.field=Famille&facet.field=SousFamille&facet.field=SousSousFamille&facet.field=Marque&start=50&facet.mincount=1&rows=50&facet=true&wt=javabin&version=2} hits=948 status=0 QTime=1
2017-10-30 10:09:56.074 INFO  (qtp128526626-20) [   x:image] o.a.s.c.S.Request [image]  webapp=/solr path=/select params={q=*:*&facet.limit=10&facet.field=Univers&facet.field=Famille&facet.field=SousFamille&facet.field=SousSousFamille&facet.field=Marque&start=50&facet.mincount=1&rows=50&facet=true&wt=javabin&version=2} hits=948 status=0 QTime=2
2017-10-30 10:11:39.541 INFO  (qtp128526626-18) [   x:image] o.a.s.c.S.Request [image]  webapp=/solr path=/select params={q=*:*&facet.limit=10&facet.field=Univers&facet.field=Famille&facet.field=SousFamille&facet.field=SousSousFamille&facet.field=Marque&start=50&facet.mincount=1&rows=50&facet=true&wt=javabin&version=2} hits=948 status=0 QTime=0
2017-10-30 10:11:51.776 INFO  (qtp128526626-16) [   x:image] o.a.s.c.S.Request [image]  webapp=/solr path=/select params={q=*:*&facet.limit=10&facet.field=Univers&facet.field=Famille&facet.field=SousFamille&facet.field=SousSousFamille&facet.field=Marque&start=50&facet.mincount=1&rows=50&facet=true&wt=javabin&version=2} hits=948 status=0 QTime=0
2017-10-30 10:19:46.409 INFO  (qtp128526626-16) [   x:image] o.a.s.c.S.Request [image]  webapp=/solr path=/select params={q=*:*&facet.limit=10&facet.field=Univers&facet.field=Famille&facet.field=SousFamille&facet.field=SousSousFamille&facet.field=Marque&start=50&facet.mincount=1&rows=50&facet=true&wt=javabin&version=2} hits=948 status=0 QTime=1
2017-10-30 10:21:11.379 INFO  (qtp128526626-18) [   x:image] o.a.s.c.S.Request [image]  webapp=/solr path=/select params={q=*:*&facet.limit=10&facet.field=Univers&facet.field=Famille&facet.field=SousFamille&facet.field=SousSousFamille&facet.field=Marque&start=50&facet.mincount=1&rows=50&facet=true&wt=javabin&version=2} hits=948 status=0 QTime=0
2017-10-30 10:21:40.261 INFO  (qtp128526626-17) [   x:image] o.a.s.c.S.Request [image]  webapp=/solr path=/select params={q=*:*&facet.limit=10&facet.field=Univers&facet.field=Famille&facet.field=SousFamille&facet.field=SousSousFamille&facet.field=Marque&start=50&facet.mincount=1&rows=50&facet=true&wt=javabin&version=2} hits=948 status=0 QTime=0
2017-10-30 10:25:44.756 INFO  (qtp128526626-18) [   x:image] o.a.s.c.S.Request [image]  webapp=/solr path=/select params={q=*:*&facet.limit=10&facet.field=Univers&facet.field=Famille&facet.field=SousFamille&facet.field=SousSousFamille&facet.field=Marque&start=50&facet.mincount=1&rows=50&facet=true&wt=javabin&version=2} hits=948 status=0 QTime=0
2017-10-30 10:28:01.550 INFO  (qtp128526626-15) [   x:image] o.a.s.c.S.Request [image]  webapp=/solr path=/select params={q=*:*&facet.limit=10&facet.field=Univers&facet.field=Famille&facet.field=SousFamille&facet.field=SousSousFamille&facet.field=Marque&start=50&facet.mincount=1&rows=50&facet=true&wt=javabin&version=2} hits=948 status=0 QTime=0
2017-10-30 10:28:39.751 INFO  (qtp128526626-18) [   x:image] o.a.s.c.S.Request [image]  webapp=/solr path=/select params={q=*:*&facet.limit=10&facet.field=Univers&facet.field=Famille&facet.field=SousFamille&facet.field=SousSousFamille&facet.field=Marque&start=50&facet.mincount=1&rows=50&facet=true&wt=javabin&version=2} hits=948 status=0 QTime=0
2017-10-30 10:30:56.173 INFO  (qtp128526626-17) [   x:image] o.a.s.c.S.Request [image]  webapp=/solr path=/select params={q=*:*&facet.limit=10&facet.field=Univers&facet.field=Famille&facet.field=SousFamille&facet.field=SousSousFamille&facet.field=Marque&start=50&facet.mincount=1&rows=50&facet=true&wt=javabin&version=2} hits=948 status=0 QTime=0
2017-10-30 10:31:55.799 INFO  (qtp128526626-15) [   x:image] o.a.s.c.S.Request [image]  webapp=/solr path=/select params={q=*:*&facet.limit=10&facet.field=Univers&facet.field=Famille&facet.field=SousFamille&facet.field=SousSousFamille&facet.field=Marque&start=50&facet.mincount=1&rows=50&facet=true&wt=javabin&version=2} hits=948 status=0 QTime=0
2017-10-30 10:32:27.597 INFO  (qtp128526626-13) [   x:image] o.a.s.c.S.Request [image]  webapp=/solr path=/select params={q=*:*&facet.limit=10&facet.field=Univers&facet.field=Famille&facet.field=SousFamille&facet.field=SousSousFamille&facet.field=Marque&start=50&facet.mincount=1&rows=50&facet=true&wt=javabin&version=2} hits=948 status=0 QTime=0
2017-10-30 10:33:46.214 INFO  (qtp128526626-16) [   x:image] o.a.s.c.S.Request [image]  webapp=/solr path=/select params={q=*:*&facet.limit=10&facet.field=Univers&facet.field=Famille&facet.field=SousFamille&facet.field=SousSousFamille&facet.field=Marque&start=50&facet.mincount=1&rows=50&facet=true&wt=javabin&version=2} hits=948 status=0 QTime=0
2017-10-30 10:34:16.170 INFO  (qtp128526626-14) [   x:image] o.a.s.c.S.Request [image]  webapp=/solr path=/select params={q=*:*&facet.limit=10&facet.field=Univers&facet.field=Famille&facet.field=SousFamille&facet.field=SousSousFamille&facet.field=Marque&start=50&facet.mincount=1&rows=50&facet=true&wt=javabin&version=2} hits=948 status=0 QTime=2
2017-10-30 10:34:17.061 INFO  (qtp128526626-22) [   x:image] o.a.s.c.S.Request [image]  webapp=/solr path=/select params={q=*:*&facet.limit=10&facet.field=Univers&facet.field=Famille&facet.field=SousFamille&facet.field=SousSousFamille&facet.field=Marque&start=50&facet.mincount=1&rows=50&facet=true&wt=javabin&version=2} hits=948 status=0 QTime=0
2017-10-30 10:34:24.843 INFO  (qtp128526626-16) [   x:image] o.a.s.c.S.Request [image]  webapp=/solr path=/select params={q=*:*&facet.limit=10&facet.field=Univers&facet.field=Famille&facet.field=SousFamille&facet.field=SousSousFamille&facet.field=Marque&start=50&facet.mincount=1&rows=50&facet=true&wt=javabin&version=2} hits=948 status=0 QTime=1
2017-10-30 10:34:25.633 INFO  (qtp128526626-20) [   x:image] o.a.s.c.S.Request [image]  webapp=/solr path=/select params={q=*:*&facet.limit=10&facet.field=Univers&facet.field=Famille&facet.field=SousFamille&facet.field=SousSousFamille&facet.field=Marque&start=50&facet.mincount=1&rows=50&facet=true&wt=javabin&version=2} hits=948 status=0 QTime=1
2017-10-30 10:34:45.357 INFO  (qtp128526626-22) [   x:image] o.a.s.c.S.Request [image]  webapp=/solr path=/select params={q=*:*&facet.limit=10&facet.field=Univers&facet.field=Famille&facet.field=SousFamille&facet.field=SousSousFamille&facet.field=Marque&start=50&facet.mincount=1&rows=50&facet=true&wt=javabin&version=2} hits=948 status=0 QTime=0
2017-10-30 10:35:08.403 INFO  (qtp128526626-14) [   x:image] o.a.s.c.S.Request [image]  webapp=/solr path=/select params={q=*:*&facet.limit=10&facet.field=Univers&facet.field=Famille&facet.field=SousFamille&facet.field=SousSousFamille&facet.field=Marque&start=50&facet.mincount=1&rows=50&facet=true&wt=javabin&version=2} hits=948 status=0 QTime=0
2017-10-30 10:35:42.809 INFO  (qtp128526626-13) [   x:image] o.a.s.c.S.Request [image]  webapp=/solr path=/select params={q=*:*&facet.limit=10&facet.field=Univers&facet.field=Famille&facet.field=SousFamille&facet.field=SousSousFamille&facet.field=Marque&start=50&facet.mincount=1&rows=50&facet=true&wt=javabin&version=2} hits=948 status=0 QTime=0
2017-10-30 10:35:43.840 INFO  (qtp128526626-15) [   x:image] o.a.s.c.S.Request [image]  webapp=/solr path=/select params={q=*:*&facet.limit=10&facet.field=Univers&facet.field=Famille&facet.field=SousFamille&facet.field=SousSousFamille&facet.field=Marque&start=50&facet.mincount=1&rows=50&facet=true&wt=javabin&version=2} hits=948 status=0 QTime=2
2017-10-30 10:36:08.731 INFO  (qtp128526626-19) [   x:image] o.a.s.c.S.Request [image]  webapp=/solr path=/select params={q=*:*&facet.limit=10&facet.field=Univers&facet.field=Famille&facet.field=SousFamille&facet.field=SousSousFamille&facet.field=Marque&start=50&facet.mincount=1&rows=50&facet=true&wt=javabin&version=2} hits=948 status=0 QTime=0
2017-10-30 10:46:13.733 INFO  (qtp128526626-15) [   x:image] o.a.s.c.S.Request [image]  webapp=/solr path=/select params={q=*:*&facet.limit=10&facet.field=Univers&facet.field=Famille&facet.field=SousFamille&facet.field=SousSousFamille&facet.field=Marque&start=50&facet.mincount=1&rows=50&facet=true&wt=javabin&version=2} hits=948 status=0 QTime=1
2017-10-30 10:46:29.214 INFO  (qtp128526626-16) [   x:image] o.a.s.c.S.Request [image]  webapp=/solr path=/select params={q=*:*&facet.limit=10&facet.field=Univers&facet.field=Famille&facet.field=SousFamille&facet.field=SousSousFamille&facet.field=Marque&start=50&facet.mincount=1&rows=50&facet=true&wt=javabin&version=2} hits=948 status=0 QTime=0
2017-10-30 10:50:02.711 INFO  (qtp128526626-19) [   x:image] o.a.s.c.S.Request [image]  webapp=/solr path=/select params={q=*:*&facet.limit=10&facet.field=Univers&facet.field=Famille&facet.field=SousFamille&facet.field=SousSousFamille&facet.field=Marque&start=50&facet.mincount=1&rows=50&facet=true&wt=javabin&version=2} hits=948 status=0 QTime=0
2017-10-30 10:50:35.467 INFO  (qtp128526626-14) [   x:image] o.a.s.c.S.Request [image]  webapp=/solr path=/select params={q=*:*&facet.limit=10&facet.field=Univers&facet.field=Famille&facet.field=SousFamille&facet.field=SousSousFamille&facet.field=Marque&start=50&facet.mincount=1&rows=50&facet=true&wt=javabin&version=2} hits=948 status=0 QTime=0
2017-10-30 10:51:27.569 INFO  (qtp128526626-20) [   x:image] o.a.s.c.S.Request [image]  webapp=/solr path=/select params={q=*:*&facet.limit=10&facet.field=Univers&facet.field=Famille&facet.field=SousFamille&facet.field=SousSousFamille&facet.field=Marque&start=50&facet.mincount=1&rows=50&facet=true&wt=javabin&version=2} hits=948 status=0 QTime=0
2017-10-30 10:51:45.228 INFO  (qtp128526626-13) [   x:image] o.a.s.c.S.Request [image]  webapp=/solr path=/select params={q=*:*&facet.limit=10&facet.field=Univers&facet.field=Famille&facet.field=SousFamille&facet.field=SousSousFamille&facet.field=Marque&start=50&facet.mincount=1&rows=50&facet=true&wt=javabin&version=2} hits=948 status=0 QTime=0
2017-10-30 10:51:48.789 INFO  (qtp128526626-14) [   x:image] o.a.s.c.S.Request [image]  webapp=/solr path=/select params={q=*:*&facet.limit=10&facet.field=Univers&facet.field=Famille&facet.field=SousFamille&facet.field=SousSousFamille&facet.field=Marque&start=50&facet.mincount=1&rows=50&facet=true&wt=javabin&version=2} hits=948 status=0 QTime=1
2017-10-30 10:52:09.189 INFO  (qtp128526626-19) [   x:image] o.a.s.c.S.Request [image]  webapp=/solr path=/select params={q=*:*&facet.limit=10&facet.field=Univers&facet.field=Famille&facet.field=SousFamille&facet.field=SousSousFamille&facet.field=Marque&start=50&facet.mincount=1&rows=50&facet=true&wt=javabin&version=2} hits=948 status=0 QTime=1
2017-10-30 10:52:10.324 INFO  (qtp128526626-22) [   x:image] o.a.s.c.S.Request [image]  webapp=/solr path=/select params={q=*:*&facet.limit=10&facet.field=Univers&facet.field=Famille&facet.field=SousFamille&facet.field=SousSousFamille&facet.field=Marque&start=50&facet.mincount=1&rows=50&facet=true&wt=javabin&version=2} hits=948 status=0 QTime=1
2017-10-30 10:52:11.463 INFO  (qtp128526626-18) [   x:image] o.a.s.c.S.Request [image]  webapp=/solr path=/select params={q=*:*&facet.limit=10&facet.field=Univers&facet.field=Famille&facet.field=SousFamille&facet.field=SousSousFamille&facet.field=Marque&start=50&facet.mincount=1&rows=50&facet=true&wt=javabin&version=2} hits=948 status=0 QTime=0
2017-10-30 10:52:12.173 INFO  (qtp128526626-18) [   x:image] o.a.s.c.S.Request [image]  webapp=/solr path=/select params={q=*:*&facet.limit=10&facet.field=Univers&facet.field=Famille&facet.field=SousFamille&facet.field=SousSousFamille&facet.field=Marque&start=50&facet.mincount=1&rows=50&facet=true&wt=javabin&version=2} hits=948 status=0 QTime=0
2017-10-30 10:53:04.515 INFO  (qtp128526626-13) [   x:image] o.a.s.c.S.Request [image]  webapp=/solr path=/select params={q=*:*&facet.limit=10&facet.field=Univers&facet.field=Famille&facet.field=SousFamille&facet.field=SousSousFamille&facet.field=Marque&start=50&facet.mincount=1&rows=50&facet=true&wt=javabin&version=2} hits=948 status=0 QTime=0
2017-10-30 10:53:11.426 INFO  (qtp128526626-13) [   x:image] o.a.s.c.S.Request [image]  webapp=/solr path=/select params={q=*:*&facet.limit=10&facet.field=Univers&facet.field=Famille&facet.field=SousFamille&facet.field=SousSousFamille&facet.field=Marque&start=50&facet.mincount=1&rows=50&facet=true&wt=javabin&version=2} hits=948 status=0 QTime=0
2017-10-30 10:54:04.044 INFO  (qtp128526626-18) [   x:image] o.a.s.c.S.Request [image]  webapp=/solr path=/select params={q=*:*&facet.limit=10&facet.field=Univers&facet.field=Famille&facet.field=SousFamille&facet.field=SousSousFamille&facet.field=Marque&start=50&facet.mincount=1&rows=50&facet=true&wt=javabin&version=2} hits=948 status=0 QTime=0
2017-10-30 10:54:20.737 INFO  (qtp128526626-14) [   x:image] o.a.s.c.S.Request [image]  webapp=/solr path=/select params={q=*:*&facet.limit=10&facet.field=Univers&facet.field=Famille&facet.field=SousFamille&facet.field=SousSousFamille&facet.field=Marque&start=50&facet.mincount=1&rows=50&facet=true&wt=javabin&version=2} hits=948 status=0 QTime=0
2017-10-30 10:59:26.711 INFO  (qtp128526626-22) [   x:image] o.a.s.c.S.Request [image]  webapp=/solr path=/select params={q=*:*&facet.limit=10&facet.field=Univers&facet.field=Famille&facet.field=SousFamille&facet.field=SousSousFamille&facet.field=Marque&start=50&facet.mincount=1&rows=50&facet=true&wt=javabin&version=2} hits=948 status=0 QTime=0
2017-10-30 10:59:28.515 INFO  (qtp128526626-15) [   x:image] o.a.s.c.S.Request [image]  webapp=/solr path=/select params={q=*:*&facet.limit=10&facet.field=Univers&facet.field=Famille&facet.field=SousFamille&facet.field=SousSousFamille&facet.field=Marque&start=50&facet.mincount=1&rows=50&facet=true&wt=javabin&version=2} hits=948 status=0 QTime=0
2017-10-30 11:00:01.079 INFO  (qtp128526626-18) [   x:image] o.a.s.c.S.Request [image]  webapp=/solr path=/select params={q=*:*&facet.limit=10&facet.field=Univers&facet.field=Famille&facet.field=SousFamille&facet.field=SousSousFamille&facet.field=Marque&start=50&facet.mincount=1&rows=50&facet=true&wt=javabin&version=2} hits=948 status=0 QTime=0
2017-10-30 11:00:26.598 INFO  (qtp128526626-22) [   x:image] o.a.s.c.S.Request [image]  webapp=/solr path=/select params={q=*:*&facet.limit=10&facet.field=Univers&facet.field=Famille&facet.field=SousFamille&facet.field=SousSousFamille&facet.field=Marque&start=50&facet.mincount=1&rows=50&facet=true&wt=javabin&version=2} hits=948 status=0 QTime=0
2017-10-30 11:01:22.650 INFO  (qtp128526626-17) [   x:image] o.a.s.c.S.Request [image]  webapp=/solr path=/select params={q=*:*&facet.limit=10&facet.field=Univers&facet.field=Famille&facet.field=SousFamille&facet.field=SousSousFamille&facet.field=Marque&start=50&facet.mincount=1&rows=50&facet=true&wt=javabin&version=2} hits=948 status=0 QTime=0
2017-10-30 20:41:21.759 INFO  (qtp128526626-22) [   x:image] o.a.s.c.S.Request [image]  webapp=/solr path=/select params={q=*:*&facet.limit=10&facet.field=Univers&facet.field=Famille&facet.field=SousFamille&facet.field=SousSousFamille&facet.field=Marque&start=50&facet.mincount=1&rows=50&facet=true&wt=javabin&version=2} hits=948 status=0 QTime=0
2017-10-30 20:42:03.024 INFO  (qtp128526626-17) [   x:image] o.a.s.c.S.Request [image]  webapp=/solr path=/select params={q=*:*&facet.limit=10&facet.field=Univers&facet.field=Famille&facet.field=SousFamille&facet.field=SousSousFamille&facet.field=Marque&start=50&facet.mincount=1&rows=50&facet=true&wt=javabin&version=2} hits=948 status=0 QTime=0
2017-10-30 20:42:38.664 INFO  (qtp128526626-16) [   x:image] o.a.s.c.S.Request [image]  webapp=/solr path=/select params={q=*:*&facet.limit=10&facet.field=Univers&facet.field=Famille&facet.field=SousFamille&facet.field=SousSousFamille&facet.field=Marque&start=50&facet.mincount=1&rows=50&facet=true&wt=javabin&version=2} hits=948 status=0 QTime=0
2017-10-30 20:42:56.133 INFO  (qtp128526626-15) [   x:image] o.a.s.c.S.Request [image]  webapp=/solr path=/select params={q=*:*&facet.limit=10&facet.field=Univers&facet.field=Famille&facet.field=SousFamille&facet.field=SousSousFamille&facet.field=Marque&start=50&facet.mincount=1&rows=50&facet=true&wt=javabin&version=2} hits=948 status=0 QTime=0
2017-10-30 20:43:22.397 INFO  (qtp128526626-13) [   x:image] o.a.s.c.S.Request [image]  webapp=/solr path=/select params={q=*:*&facet.limit=10&facet.field=Univers&facet.field=Famille&facet.field=SousFamille&facet.field=SousSousFamille&facet.field=Marque&start=50&facet.mincount=1&rows=50&facet=true&wt=javabin&version=2} hits=948 status=0 QTime=0
2017-10-30 20:44:22.121 INFO  (qtp128526626-19) [   x:image] o.a.s.c.S.Request [image]  webapp=/solr path=/select params={q=*:*&facet.limit=10&facet.field=Univers&facet.field=Famille&facet.field=SousFamille&facet.field=SousSousFamille&facet.field=Marque&start=50&facet.mincount=1&rows=50&facet=true&wt=javabin&version=2} hits=948 status=0 QTime=0
2017-10-30 20:45:29.044 INFO  (qtp128526626-18) [   x:image] o.a.s.c.S.Request [image]  webapp=/solr path=/select params={q=*:*&facet.limit=10&facet.field=Univers&facet.field=Famille&facet.field=SousFamille&facet.field=SousSousFamille&facet.field=Marque&start=50&facet.mincount=1&rows=50&facet=true&wt=javabin&version=2} hits=948 status=0 QTime=0
2017-10-30 20:46:29.852 INFO  (qtp128526626-17) [   x:image] o.a.s.c.S.Request [image]  webapp=/solr path=/select params={q=*:*&facet.limit=10&facet.field=Univers&facet.field=Famille&facet.field=SousFamille&facet.field=SousSousFamille&facet.field=Marque&start=50&facet.mincount=1&rows=50&facet=true&wt=javabin&version=2} hits=948 status=0 QTime=0
2017-10-30 20:46:31.258 INFO  (qtp128526626-18) [   x:image] o.a.s.c.S.Request [image]  webapp=/solr path=/select params={q=*:*&facet.limit=10&facet.field=Univers&facet.field=Famille&facet.field=SousFamille&facet.field=SousSousFamille&facet.field=Marque&start=50&facet.mincount=1&rows=50&facet=true&wt=javabin&version=2} hits=948 status=0 QTime=0
2017-10-30 20:46:31.879 INFO  (qtp128526626-19) [   x:image] o.a.s.c.S.Request [image]  webapp=/solr path=/select params={q=*:*&facet.limit=10&facet.field=Univers&facet.field=Famille&facet.field=SousFamille&facet.field=SousSousFamille&facet.field=Marque&start=50&facet.mincount=1&rows=50&facet=true&wt=javabin&version=2} hits=948 status=0 QTime=0
2017-10-30 20:46:34.123 INFO  (qtp128526626-22) [   x:image] o.a.s.c.S.Request [image]  webapp=/solr path=/select params={q=*:*&facet.limit=10&facet.field=Univers&facet.field=Famille&facet.field=SousFamille&facet.field=SousSousFamille&facet.field=Marque&start=50&facet.mincount=1&rows=50&facet=true&wt=javabin&version=2} hits=948 status=0 QTime=0
2017-10-30 20:46:41.333 INFO  (qtp128526626-20) [   x:image] o.a.s.c.S.Request [image]  webapp=/solr path=/select params={q=*:*&facet.limit=10&facet.field=Univers&facet.field=Famille&facet.field=SousFamille&facet.field=SousSousFamille&facet.field=Marque&start=50&facet.mincount=1&rows=50&facet=true&wt=javabin&version=2} hits=948 status=0 QTime=1
2017-10-30 20:47:22.886 INFO  (qtp128526626-19) [   x:image] o.a.s.c.S.Request [image]  webapp=/solr path=/select params={q=*:*&facet.limit=10&facet.field=Univers&facet.field=Famille&facet.field=SousFamille&facet.field=SousSousFamille&facet.field=Marque&start=50&facet.mincount=1&rows=50&facet=true&wt=javabin&version=2} hits=948 status=0 QTime=0
2017-10-30 20:47:23.648 INFO  (qtp128526626-22) [   x:image] o.a.s.c.S.Request [image]  webapp=/solr path=/select params={q=*:*&facet.limit=10&facet.field=Univers&facet.field=Famille&facet.field=SousFamille&facet.field=SousSousFamille&facet.field=Marque&start=50&facet.mincount=1&rows=50&facet=true&wt=javabin&version=2} hits=948 status=0 QTime=0
2017-10-30 20:47:34.452 INFO  (qtp128526626-15) [   x:image] o.a.s.c.S.Request [image]  webapp=/solr path=/select params={q=*:*&facet.limit=10&facet.field=Univers&facet.field=Famille&facet.field=SousFamille&facet.field=SousSousFamille&facet.field=Marque&start=50&facet.mincount=1&rows=50&facet=true&wt=javabin&version=2} hits=948 status=0 QTime=0
2017-10-30 20:47:47.776 INFO  (qtp128526626-18) [   x:image] o.a.s.c.S.Request [image]  webapp=/solr path=/select params={q=*:*&facet.limit=10&facet.field=Univers&facet.field=Famille&facet.field=SousFamille&facet.field=SousSousFamille&facet.field=Marque&start=50&facet.mincount=1&rows=50&facet=true&wt=javabin&version=2} hits=948 status=0 QTime=0
2017-10-30 20:47:48.886 INFO  (qtp128526626-13) [   x:image] o.a.s.c.S.Request [image]  webapp=/solr path=/select params={q=*:*&facet.limit=10&facet.field=Univers&facet.field=Famille&facet.field=SousFamille&facet.field=SousSousFamille&facet.field=Marque&start=50&facet.mincount=1&rows=50&facet=true&wt=javabin&version=2} hits=948 status=0 QTime=2
2017-10-30 20:48:09.888 INFO  (qtp128526626-14) [   x:image] o.a.s.c.S.Request [image]  webapp=/solr path=/select params={q=*:*&facet.limit=10&facet.field=Univers&facet.field=Famille&facet.field=SousFamille&facet.field=SousSousFamille&facet.field=Marque&start=50&facet.mincount=1&rows=50&facet=true&wt=javabin&version=2} hits=948 status=0 QTime=0
2017-10-30 20:48:11.100 INFO  (qtp128526626-18) [   x:image] o.a.s.c.S.Request [image]  webapp=/solr path=/select params={q=*:*&facet.limit=10&facet.field=Univers&facet.field=Famille&facet.field=SousFamille&facet.field=SousSousFamille&facet.field=Marque&start=50&facet.mincount=1&rows=50&facet=true&wt=javabin&version=2} hits=948 status=0 QTime=0
2017-10-30 20:50:25.496 INFO  (qtp128526626-17) [   x:image] o.a.s.c.S.Request [image]  webapp=/solr path=/select params={q=*:*&facet.limit=10&facet.field=Univers&facet.field=Famille&facet.field=SousFamille&facet.field=SousSousFamille&facet.field=Marque&start=50&facet.mincount=1&rows=50&facet=true&wt=javabin&version=2} hits=948 status=0 QTime=0
2017-10-30 20:52:55.979 INFO  (qtp128526626-22) [   x:image] o.a.s.c.S.Request [image]  webapp=/solr path=/select params={q=*:*&facet.limit=10&facet.field=Univers&facet.field=Famille&facet.field=SousFamille&facet.field=SousSousFamille&facet.field=Marque&start=50&facet.mincount=1&rows=50&facet=true&wt=javabin&version=2} hits=948 status=0 QTime=0
2017-10-30 20:53:42.251 INFO  (qtp128526626-13) [   x:image] o.a.s.c.S.Request [image]  webapp=/solr path=/select params={q=*:*&facet.limit=10&facet.field=Univers&facet.field=Famille&facet.field=SousFamille&facet.field=SousSousFamille&facet.field=Marque&start=50&facet.mincount=1&rows=50&facet=true&wt=javabin&version=2} hits=948 status=0 QTime=1
2017-10-30 20:56:30.644 INFO  (qtp128526626-17) [   x:image] o.a.s.c.S.Request [image]  webapp=/solr path=/select params={q=*:*&facet.limit=10&facet.field=Univers&facet.field=Famille&facet.field=SousFamille&facet.field=SousSousFamille&facet.field=Marque&start=50&facet.mincount=1&rows=50&facet=true&wt=javabin&version=2} hits=948 status=0 QTime=0
2017-10-30 20:58:12.496 INFO  (qtp128526626-15) [   x:image] o.a.s.c.S.Request [image]  webapp=/solr path=/select params={q=*:*&facet.limit=10&facet.field=Univers&facet.field=Famille&facet.field=SousFamille&facet.field=SousSousFamille&facet.field=Marque&start=50&facet.mincount=1&rows=50&facet=true&wt=javabin&version=2} hits=948 status=0 QTime=0
2017-10-30 20:59:00.138 INFO  (qtp128526626-20) [   x:image] o.a.s.c.S.Request [image]  webapp=/solr path=/select params={q=*:*&facet.limit=10&facet.field=Univers&facet.field=Famille&facet.field=SousFamille&facet.field=SousSousFamille&facet.field=Marque&start=50&facet.mincount=1&rows=50&facet=true&wt=javabin&version=2} hits=948 status=0 QTime=0
2017-10-30 20:59:34.111 INFO  (qtp128526626-13) [   x:image] o.a.s.c.S.Request [image]  webapp=/solr path=/select params={q=*:*&facet.limit=10&facet.field=Univers&facet.field=Famille&facet.field=SousFamille&facet.field=SousSousFamille&facet.field=Marque&start=50&facet.mincount=1&rows=50&facet=true&wt=javabin&version=2} hits=948 status=0 QTime=0
2017-10-30 21:01:17.908 INFO  (qtp128526626-22) [   x:image] o.a.s.c.S.Request [image]  webapp=/solr path=/select params={q=*:*&facet.limit=10&facet.field=Univers&facet.field=Famille&facet.field=SousFamille&facet.field=SousSousFamille&facet.field=Marque&start=50&facet.mincount=1&rows=50&facet=true&wt=javabin&version=2} hits=948 status=0 QTime=0
2017-10-30 21:01:18.881 INFO  (qtp128526626-13) [   x:image] o.a.s.c.S.Request [image]  webapp=/solr path=/select params={q=*:*&facet.limit=10&facet.field=Univers&facet.field=Famille&facet.field=SousFamille&facet.field=SousSousFamille&facet.field=Marque&start=50&facet.mincount=1&rows=50&facet=true&wt=javabin&version=2} hits=948 status=0 QTime=1
2017-10-30 21:01:54.278 INFO  (qtp128526626-20) [   x:image] o.a.s.c.S.Request [image]  webapp=/solr path=/select params={q=*:*&facet.limit=10&facet.field=Univers&facet.field=Famille&facet.field=SousFamille&facet.field=SousSousFamille&facet.field=Marque&start=50&facet.mincount=1&rows=50&facet=true&wt=javabin&version=2} hits=948 status=0 QTime=2
2017-10-30 21:02:43.941 INFO  (qtp128526626-22) [   x:image] o.a.s.c.S.Request [image]  webapp=/solr path=/select params={q=*:*&facet.limit=10&facet.field=Univers&facet.field=Famille&facet.field=SousFamille&facet.field=SousSousFamille&facet.field=Marque&start=50&facet.mincount=1&rows=50&facet=true&wt=javabin&version=2} hits=948 status=0 QTime=0
2017-10-30 21:03:15.369 INFO  (qtp128526626-13) [   x:image] o.a.s.c.S.Request [image]  webapp=/solr path=/select params={q=*:*&facet.limit=10&facet.field=Univers&facet.field=Famille&facet.field=SousFamille&facet.field=SousSousFamille&facet.field=Marque&start=50&facet.mincount=1&rows=50&facet=true&wt=javabin&version=2} hits=948 status=0 QTime=0
2017-10-30 21:17:03.575 INFO  (qtp128526626-13) [   x:image] o.a.s.c.S.Request [image]  webapp=/solr path=/select params={q=*:*&facet.limit=10&facet.field=Univers&facet.field=Famille&facet.field=SousFamille&facet.field=SousSousFamille&facet.field=Marque&start=50&facet.mincount=1&rows=50&facet=true&wt=javabin&version=2} hits=948 status=0 QTime=0
2017-10-30 21:18:59.905 INFO  (qtp128526626-15) [   x:image] o.a.s.c.S.Request [image]  webapp=/solr path=/select params={q=*:*&facet.limit=10&facet.field=Univers&facet.field=Famille&facet.field=SousFamille&facet.field=SousSousFamille&facet.field=Marque&start=50&facet.mincount=1&rows=50&facet=true&wt=javabin&version=2} hits=948 status=0 QTime=0
2017-10-30 21:21:00.417 INFO  (qtp128526626-22) [   x:image] o.a.s.c.S.Request [image]  webapp=/solr path=/select params={q=*:*&facet.limit=10&facet.field=Univers&facet.field=Famille&facet.field=SousFamille&facet.field=SousSousFamille&facet.field=Marque&start=50&facet.mincount=1&rows=50&facet=true&wt=javabin&version=2} hits=948 status=0 QTime=0
2017-10-30 21:29:31.132 INFO  (qtp128526626-16) [   x:image] o.a.s.c.S.Request [image]  webapp=/solr path=/select params={q=*:*&facet.limit=10&facet.field=Univers&facet.field=Famille&facet.field=SousFamille&facet.field=SousSousFamille&facet.field=Marque&start=50&facet.mincount=1&rows=50&facet=true&wt=javabin&version=2} hits=948 status=0 QTime=0
2017-10-30 21:30:31.191 INFO  (qtp128526626-13) [   x:image] o.a.s.c.S.Request [image]  webapp=/solr path=/select params={q=*:*&facet.limit=10&facet.field=Univers&facet.field=Famille&facet.field=SousFamille&facet.field=SousSousFamille&facet.field=Marque&start=50&facet.mincount=1&rows=50&facet=true&wt=javabin&version=2} hits=948 status=0 QTime=0
2017-10-30 21:31:16.805 INFO  (qtp128526626-22) [   x:image] o.a.s.c.S.Request [image]  webapp=/solr path=/select params={q=*:*&facet.limit=10&facet.field=Univers&facet.field=Famille&facet.field=SousFamille&facet.field=SousSousFamille&facet.field=Marque&start=50&facet.mincount=1&rows=50&facet=true&wt=javabin&version=2} hits=948 status=0 QTime=0
2017-10-30 21:32:34.561 INFO  (qtp128526626-18) [   x:image] o.a.s.c.S.Request [image]  webapp=/solr path=/select params={q=*:*&facet.limit=10&facet.field=Univers&facet.field=Famille&facet.field=SousFamille&facet.field=SousSousFamille&facet.field=Marque&start=50&facet.mincount=1&rows=50&facet=true&wt=javabin&version=2} hits=948 status=0 QTime=0
2017-10-30 21:34:15.896 INFO  (qtp128526626-14) [   x:image] o.a.s.c.S.Request [image]  webapp=/solr path=/select params={q=*:*&facet.limit=10&facet.field=Univers&facet.field=Famille&facet.field=SousFamille&facet.field=SousSousFamille&facet.field=Marque&start=50&facet.mincount=1&rows=50&facet=true&wt=javabin&version=2} hits=948 status=0 QTime=0
2017-10-30 21:34:16.893 INFO  (qtp128526626-18) [   x:image] o.a.s.c.S.Request [image]  webapp=/solr path=/select params={q=*:*&facet.limit=10&facet.field=Univers&facet.field=Famille&facet.field=SousFamille&facet.field=SousSousFamille&facet.field=Marque&start=50&facet.mincount=1&rows=50&facet=true&wt=javabin&version=2} hits=948 status=0 QTime=1
2017-10-30 21:39:52.793 INFO  (qtp128526626-20) [   x:image] o.a.s.c.S.Request [image]  webapp=/solr path=/select params={q=*:*&facet.limit=10&facet.field=Univers&facet.field=Famille&facet.field=SousFamille&facet.field=SousSousFamille&facet.field=Marque&start=50&facet.mincount=1&rows=50&facet=true&wt=javabin&version=2} hits=948 status=0 QTime=0
2017-10-30 21:40:49.427 INFO  (qtp128526626-14) [   x:image] o.a.s.c.S.Request [image]  webapp=/solr path=/select params={q=*:*&facet.limit=10&facet.field=Univers&facet.field=Famille&facet.field=SousFamille&facet.field=SousSousFamille&facet.field=Marque&start=50&facet.mincount=1&rows=50&facet=true&wt=javabin&version=2} hits=948 status=0 QTime=0
2017-10-30 21:42:14.950 INFO  (qtp128526626-16) [   x:image] o.a.s.c.S.Request [image]  webapp=/solr path=/select params={q=*:*&facet.limit=10&facet.field=Univers&facet.field=Famille&facet.field=SousFamille&facet.field=SousSousFamille&facet.field=Marque&start=50&facet.mincount=1&rows=50&facet=true&wt=javabin&version=2} hits=948 status=0 QTime=0
2017-10-30 21:43:43.573 INFO  (qtp128526626-17) [   x:image] o.a.s.c.S.Request [image]  webapp=/solr path=/select params={q=*:*&facet.limit=10&facet.field=Univers&facet.field=Famille&facet.field=SousFamille&facet.field=SousSousFamille&facet.field=Marque&start=50&facet.mincount=1&rows=50&facet=true&wt=javabin&version=2} hits=948 status=0 QTime=0
2017-10-30 21:46:03.473 INFO  (qtp128526626-19) [   x:image] o.a.s.c.S.Request [image]  webapp=/solr path=/select params={q=*:*&facet.limit=10&facet.field=Univers&facet.field=Famille&facet.field=SousFamille&facet.field=SousSousFamille&facet.field=Marque&start=50&facet.mincount=1&rows=50&facet=true&wt=javabin&version=2} hits=948 status=0 QTime=0
2017-10-30 21:47:28.073 INFO  (qtp128526626-14) [   x:image] o.a.s.c.S.Request [image]  webapp=/solr path=/select params={q=*:*&facet.limit=10&facet.field=Univers&facet.field=Famille&facet.field=SousFamille&facet.field=SousSousFamille&facet.field=Marque&start=50&facet.mincount=1&rows=50&facet=true&wt=javabin&version=2} hits=948 status=0 QTime=1
2017-10-30 21:49:36.046 INFO  (qtp128526626-16) [   x:image] o.a.s.c.S.Request [image]  webapp=/solr path=/select params={q=*:*&facet.limit=10&facet.field=Univers&facet.field=Famille&facet.field=SousFamille&facet.field=SousSousFamille&facet.field=Marque&start=50&facet.mincount=1&rows=50&facet=true&wt=javabin&version=2} hits=948 status=0 QTime=1
2017-10-30 21:50:13.718 INFO  (qtp128526626-19) [   x:image] o.a.s.c.S.Request [image]  webapp=/solr path=/select params={q=*:*&facet.limit=10&facet.field=Univers&facet.field=Famille&facet.field=SousFamille&facet.field=SousSousFamille&facet.field=Marque&start=50&facet.mincount=1&rows=50&facet=true&wt=javabin&version=2} hits=948 status=0 QTime=0
