2017-10-27 13:28:25.603 INFO  (main) [   ] o.e.j.s.Server jetty-9.3.14.v20161028
2017-10-27 13:28:25.812 INFO  (main) [   ] o.a.s.s.SolrDispatchFilter  ___      _       Welcome to Apache Solr™ version 7.0.1
2017-10-27 13:28:25.812 INFO  (main) [   ] o.a.s.s.SolrDispatchFilter / __| ___| |_ _   Starting in standalone mode on port 8983
2017-10-27 13:28:25.812 INFO  (main) [   ] o.a.s.s.SolrDispatchFilter \__ \/ _ \ | '_|  Install dir: /home/pierre/workspace/rpu-images-solr/solr, Default config dir: /home/pierre/workspace/rpu-images-solr/solr/server/solr/configsets/_default/conf
2017-10-27 13:28:25.822 INFO  (main) [   ] o.a.s.s.SolrDispatchFilter |___/\___/_|_|    Start time: 2017-10-27T13:28:25.813Z
2017-10-27 13:28:25.823 INFO  (main) [   ] o.a.s.s.StartupLoggingUtils Property solr.log.muteconsole given. Muting ConsoleAppender named CONSOLE
2017-10-27 13:28:25.836 INFO  (main) [   ] o.a.s.c.SolrResourceLoader Using system property solr.solr.home: /home/pierre/workspace/rpu-images-solr/solr/server/solr
2017-10-27 13:28:25.840 INFO  (main) [   ] o.a.s.c.SolrXmlConfig Loading container configuration from /home/pierre/workspace/rpu-images-solr/solr/server/solr/solr.xml
2017-10-27 13:28:26.218 INFO  (main) [   ] o.a.s.c.CorePropertiesLocator Found 1 core definitions underneath /home/pierre/workspace/rpu-images-solr/solr/server/solr
2017-10-27 13:28:26.221 INFO  (main) [   ] o.a.s.c.CorePropertiesLocator Cores are: [image]
2017-10-27 13:28:26.224 INFO  (coreLoadExecutor-6-thread-1) [   ] o.a.s.c.TransientSolrCoreCacheDefault Allocating transient cache for 2147483647 transient cores
2017-10-27 13:28:26.255 INFO  (main) [   ] o.e.j.s.Server Started @988ms
2017-10-27 13:28:26.263 INFO  (coreLoadExecutor-6-thread-1) [   x:image] o.a.s.c.SolrResourceLoader [image] Added 51 libs to classloader, from paths: [/home/pierre/workspace/rpu-images-solr/solr/contrib/clustering/lib, /home/pierre/workspace/rpu-images-solr/solr/contrib/extraction/lib, /home/pierre/workspace/rpu-images-solr/solr/contrib/langid/lib, /home/pierre/workspace/rpu-images-solr/solr/contrib/velocity/lib, /home/pierre/workspace/rpu-images-solr/solr/dist]
2017-10-27 13:28:26.420 INFO  (coreLoadExecutor-6-thread-1) [   x:image] o.a.s.c.SolrConfig Using Lucene MatchVersion: 7.0.1
2017-10-27 13:28:26.534 INFO  (coreLoadExecutor-6-thread-1) [   x:image] o.a.s.s.IndexSchema [image] Schema name=default-config
2017-10-27 13:28:26.884 INFO  (coreLoadExecutor-6-thread-1) [   x:image] o.a.s.s.IndexSchema Loaded schema default-config/1.6 with uniqueid field id
2017-10-27 13:28:26.910 INFO  (coreLoadExecutor-6-thread-1) [   x:image] o.a.s.c.CoreContainer Creating SolrCore 'image' using configuration from instancedir /home/pierre/workspace/rpu-images-solr/solr/server/solr/image, trusted=true
2017-10-27 13:28:26.932 INFO  (coreLoadExecutor-6-thread-1) [   x:image] o.a.s.c.SolrCore solr.RecoveryStrategy.Builder
2017-10-27 13:28:26.936 INFO  (coreLoadExecutor-6-thread-1) [   x:image] o.a.s.c.SolrCore [[image] ] Opening new SolrCore at [/home/pierre/workspace/rpu-images-solr/solr/server/solr/image], dataDir=[/home/pierre/workspace/rpu-images-solr/solr/server/solr/image/data/]
2017-10-27 13:28:26.955 INFO  (coreLoadExecutor-6-thread-1) [   x:image] o.a.s.r.XSLTResponseWriter xsltCacheLifetimeSeconds=5
2017-10-27 13:28:27.149 INFO  (coreLoadExecutor-6-thread-1) [   x:image] o.a.s.u.UpdateHandler Using UpdateLog implementation: org.apache.solr.update.UpdateLog
2017-10-27 13:28:27.149 INFO  (coreLoadExecutor-6-thread-1) [   x:image] o.a.s.u.UpdateLog Initializing UpdateLog: dataDir= defaultSyncLevel=FLUSH numRecordsToKeep=100 maxNumLogsToKeep=10 numVersionBuckets=65536
2017-10-27 13:28:27.163 INFO  (coreLoadExecutor-6-thread-1) [   x:image] o.a.s.u.CommitTracker Hard AutoCommit: if uncommited for 15000ms; 
2017-10-27 13:28:27.164 INFO  (coreLoadExecutor-6-thread-1) [   x:image] o.a.s.u.CommitTracker Soft AutoCommit: disabled
2017-10-27 13:28:27.233 INFO  (coreLoadExecutor-6-thread-1) [   x:image] o.a.s.s.SolrIndexSearcher Opening [Searcher@7464bbfb[image] main]
2017-10-27 13:28:27.240 INFO  (coreLoadExecutor-6-thread-1) [   x:image] o.a.s.r.ManagedResourceStorage File-based storage initialized to use dir: /home/pierre/workspace/rpu-images-solr/solr/server/solr/image/conf
2017-10-27 13:28:27.251 INFO  (coreLoadExecutor-6-thread-1) [   x:image] o.a.s.h.c.SpellCheckComponent Initializing spell checkers
2017-10-27 13:28:27.256 INFO  (coreLoadExecutor-6-thread-1) [   x:image] o.a.s.s.DirectSolrSpellChecker init: {name=default,field=_text_,classname=solr.DirectSolrSpellChecker,distanceMeasure=internal,accuracy=0.5,maxEdits=2,minPrefix=1,maxInspections=5,minQueryLength=4,maxQueryFrequency=0.01}
2017-10-27 13:28:27.264 INFO  (coreLoadExecutor-6-thread-1) [   x:image] o.a.s.h.ReplicationHandler Commits will be reserved for  10000
2017-10-27 13:28:27.294 INFO  (searcherExecutor-7-thread-1-processing-x:image) [   x:image] o.a.s.c.QuerySenderListener QuerySenderListener sending requests to Searcher@7464bbfb[image] main{ExitableDirectoryReader(UninvertingDirectoryReader(Uninverting(_1om(7.0.1):C946) Uninverting(_1on(7.0.1):C1) Uninverting(_1oo(7.0.1):C1)))}
2017-10-27 13:28:27.294 INFO  (searcherExecutor-7-thread-1-processing-x:image) [   x:image] o.a.s.c.QuerySenderListener QuerySenderListener done.
2017-10-27 13:28:27.294 INFO  (searcherExecutor-7-thread-1-processing-x:image) [   x:image] o.a.s.h.c.SpellCheckComponent Loading spell index for spellchecker: default
2017-10-27 13:28:27.297 INFO  (searcherExecutor-7-thread-1-processing-x:image) [   x:image] o.a.s.c.SolrCore [image] Registered new searcher Searcher@7464bbfb[image] main{ExitableDirectoryReader(UninvertingDirectoryReader(Uninverting(_1om(7.0.1):C946) Uninverting(_1on(7.0.1):C1) Uninverting(_1oo(7.0.1):C1)))}
2017-10-27 13:28:56.365 INFO  (qtp128526626-16) [   x:image] o.a.s.c.S.Request [image]  webapp=/solr path=/select params={q=*:*&facet.limit=10&facet.field=Univers&facet.field=Famille&facet.field=SousFamille&facet.field=SousSousFamille&facet.field=Marque&start=50&facet.mincount=1&rows=50&facet=true&wt=javabin&version=2} hits=948 status=0 QTime=42
2017-10-27 13:29:34.768 INFO  (qtp128526626-22) [   x:image] o.a.s.c.S.Request [image]  webapp=/solr path=/select params={q=*:*&facet.limit=10&facet.field=Univers&facet.field=Famille&facet.field=SousFamille&facet.field=SousSousFamille&facet.field=Marque&start=50&facet.mincount=1&rows=50&facet=true&wt=javabin&version=2} hits=948 status=0 QTime=2
2017-10-27 13:29:51.002 INFO  (qtp128526626-21) [   x:image] o.a.s.c.S.Request [image]  webapp=/solr path=/select params={q=*:*&facet.limit=10&facet.field=Univers&facet.field=Famille&facet.field=SousFamille&facet.field=SousSousFamille&facet.field=Marque&start=50&facet.mincount=1&rows=50&facet=true&wt=javabin&version=2} hits=948 status=0 QTime=1
