2017-10-28 15:13:21.335 INFO  (main) [   ] o.e.j.s.Server jetty-9.3.14.v20161028
2017-10-28 15:13:21.542 INFO  (main) [   ] o.a.s.s.SolrDispatchFilter  ___      _       Welcome to Apache Solr™ version 7.0.1
2017-10-28 15:13:21.542 INFO  (main) [   ] o.a.s.s.SolrDispatchFilter / __| ___| |_ _   Starting in standalone mode on port 8983
2017-10-28 15:13:21.542 INFO  (main) [   ] o.a.s.s.SolrDispatchFilter \__ \/ _ \ | '_|  Install dir: /home/pierre/workspace/rpu-images-solr/solr, Default config dir: /home/pierre/workspace/rpu-images-solr/solr/server/solr/configsets/_default/conf
2017-10-28 15:13:21.554 INFO  (main) [   ] o.a.s.s.SolrDispatchFilter |___/\___/_|_|    Start time: 2017-10-28T15:13:21.543Z
2017-10-28 15:13:21.554 INFO  (main) [   ] o.a.s.s.StartupLoggingUtils Property solr.log.muteconsole given. Muting ConsoleAppender named CONSOLE
2017-10-28 15:13:21.567 INFO  (main) [   ] o.a.s.c.SolrResourceLoader Using system property solr.solr.home: /home/pierre/workspace/rpu-images-solr/solr/server/solr
2017-10-28 15:13:21.572 INFO  (main) [   ] o.a.s.c.SolrXmlConfig Loading container configuration from /home/pierre/workspace/rpu-images-solr/solr/server/solr/solr.xml
2017-10-28 15:13:21.950 INFO  (main) [   ] o.a.s.c.CorePropertiesLocator Found 1 core definitions underneath /home/pierre/workspace/rpu-images-solr/solr/server/solr
2017-10-28 15:13:21.953 INFO  (main) [   ] o.a.s.c.CorePropertiesLocator Cores are: [image]
2017-10-28 15:13:21.956 INFO  (coreLoadExecutor-6-thread-1) [   ] o.a.s.c.TransientSolrCoreCacheDefault Allocating transient cache for 2147483647 transient cores
2017-10-28 15:13:21.985 INFO  (main) [   ] o.e.j.s.Server Started @972ms
2017-10-28 15:13:21.998 INFO  (coreLoadExecutor-6-thread-1) [   x:image] o.a.s.c.SolrResourceLoader [image] Added 51 libs to classloader, from paths: [/home/pierre/workspace/rpu-images-solr/solr/contrib/clustering/lib, /home/pierre/workspace/rpu-images-solr/solr/contrib/extraction/lib, /home/pierre/workspace/rpu-images-solr/solr/contrib/langid/lib, /home/pierre/workspace/rpu-images-solr/solr/contrib/velocity/lib, /home/pierre/workspace/rpu-images-solr/solr/dist]
2017-10-28 15:13:22.124 INFO  (coreLoadExecutor-6-thread-1) [   x:image] o.a.s.c.SolrConfig Using Lucene MatchVersion: 7.0.1
2017-10-28 15:13:22.225 INFO  (coreLoadExecutor-6-thread-1) [   x:image] o.a.s.s.IndexSchema [image] Schema name=default-config
2017-10-28 15:13:22.530 INFO  (coreLoadExecutor-6-thread-1) [   x:image] o.a.s.s.IndexSchema Loaded schema default-config/1.6 with uniqueid field id
2017-10-28 15:13:22.549 INFO  (coreLoadExecutor-6-thread-1) [   x:image] o.a.s.c.CoreContainer Creating SolrCore 'image' using configuration from instancedir /home/pierre/workspace/rpu-images-solr/solr/server/solr/image, trusted=true
2017-10-28 15:13:22.573 INFO  (coreLoadExecutor-6-thread-1) [   x:image] o.a.s.c.SolrCore solr.RecoveryStrategy.Builder
2017-10-28 15:13:22.577 INFO  (coreLoadExecutor-6-thread-1) [   x:image] o.a.s.c.SolrCore [[image] ] Opening new SolrCore at [/home/pierre/workspace/rpu-images-solr/solr/server/solr/image], dataDir=[/home/pierre/workspace/rpu-images-solr/solr/server/solr/image/data/]
2017-10-28 15:13:22.597 INFO  (coreLoadExecutor-6-thread-1) [   x:image] o.a.s.r.XSLTResponseWriter xsltCacheLifetimeSeconds=5
2017-10-28 15:13:22.792 INFO  (coreLoadExecutor-6-thread-1) [   x:image] o.a.s.u.UpdateHandler Using UpdateLog implementation: org.apache.solr.update.UpdateLog
2017-10-28 15:13:22.792 INFO  (coreLoadExecutor-6-thread-1) [   x:image] o.a.s.u.UpdateLog Initializing UpdateLog: dataDir= defaultSyncLevel=FLUSH numRecordsToKeep=100 maxNumLogsToKeep=10 numVersionBuckets=65536
2017-10-28 15:13:22.806 INFO  (coreLoadExecutor-6-thread-1) [   x:image] o.a.s.u.CommitTracker Hard AutoCommit: if uncommited for 15000ms; 
2017-10-28 15:13:22.806 INFO  (coreLoadExecutor-6-thread-1) [   x:image] o.a.s.u.CommitTracker Soft AutoCommit: disabled
2017-10-28 15:13:22.874 INFO  (coreLoadExecutor-6-thread-1) [   x:image] o.a.s.s.SolrIndexSearcher Opening [Searcher@74301fbd[image] main]
2017-10-28 15:13:22.881 INFO  (coreLoadExecutor-6-thread-1) [   x:image] o.a.s.r.ManagedResourceStorage File-based storage initialized to use dir: /home/pierre/workspace/rpu-images-solr/solr/server/solr/image/conf
2017-10-28 15:13:22.892 INFO  (coreLoadExecutor-6-thread-1) [   x:image] o.a.s.h.c.SpellCheckComponent Initializing spell checkers
2017-10-28 15:13:22.896 INFO  (coreLoadExecutor-6-thread-1) [   x:image] o.a.s.s.DirectSolrSpellChecker init: {name=default,field=_text_,classname=solr.DirectSolrSpellChecker,distanceMeasure=internal,accuracy=0.5,maxEdits=2,minPrefix=1,maxInspections=5,minQueryLength=4,maxQueryFrequency=0.01}
2017-10-28 15:13:22.904 INFO  (coreLoadExecutor-6-thread-1) [   x:image] o.a.s.h.ReplicationHandler Commits will be reserved for  10000
2017-10-28 15:13:22.933 INFO  (searcherExecutor-7-thread-1-processing-x:image) [   x:image] o.a.s.c.QuerySenderListener QuerySenderListener sending requests to Searcher@74301fbd[image] main{ExitableDirectoryReader(UninvertingDirectoryReader(Uninverting(_1om(7.0.1):C946) Uninverting(_1on(7.0.1):C1) Uninverting(_1oo(7.0.1):C1)))}
2017-10-28 15:13:22.933 INFO  (searcherExecutor-7-thread-1-processing-x:image) [   x:image] o.a.s.c.QuerySenderListener QuerySenderListener done.
2017-10-28 15:13:22.933 INFO  (searcherExecutor-7-thread-1-processing-x:image) [   x:image] o.a.s.h.c.SpellCheckComponent Loading spell index for spellchecker: default
2017-10-28 15:13:22.937 INFO  (searcherExecutor-7-thread-1-processing-x:image) [   x:image] o.a.s.c.SolrCore [image] Registered new searcher Searcher@74301fbd[image] main{ExitableDirectoryReader(UninvertingDirectoryReader(Uninverting(_1om(7.0.1):C946) Uninverting(_1on(7.0.1):C1) Uninverting(_1oo(7.0.1):C1)))}
2017-10-28 15:18:41.412 INFO  (qtp128526626-21) [   x:image] o.a.s.c.S.Request [image]  webapp=/solr path=/select params={q=*:*&facet.limit=10&facet.field=Univers&facet.field=Famille&facet.field=SousFamille&facet.field=SousSousFamille&facet.field=Marque&start=50&facet.mincount=1&rows=50&facet=true&wt=javabin&version=2} hits=948 status=0 QTime=41
2017-10-28 15:19:45.527 INFO  (qtp128526626-15) [   x:image] o.a.s.c.S.Request [image]  webapp=/solr path=/select params={q=*:*&facet.limit=10&facet.field=Univers&facet.field=Famille&facet.field=SousFamille&facet.field=SousSousFamille&facet.field=Marque&start=50&facet.mincount=1&rows=50&facet=true&wt=javabin&version=2} hits=948 status=0 QTime=3
2017-10-28 15:19:53.365 INFO  (qtp128526626-16) [   x:image] o.a.s.c.S.Request [image]  webapp=/solr path=/select params={q=*:*&facet.limit=10&facet.field=Univers&facet.field=Famille&facet.field=SousFamille&facet.field=SousSousFamille&facet.field=Marque&start=50&facet.mincount=1&rows=50&facet=true&wt=javabin&version=2} hits=948 status=0 QTime=1
2017-10-28 15:21:20.838 INFO  (qtp128526626-19) [   x:image] o.a.s.c.S.Request [image]  webapp=/solr path=/select params={q=*:*&facet.limit=10&facet.field=Univers&facet.field=Famille&facet.field=SousFamille&facet.field=SousSousFamille&facet.field=Marque&start=50&facet.mincount=1&rows=50&facet=true&wt=javabin&version=2} hits=948 status=0 QTime=2
2017-10-28 15:21:46.394 INFO  (qtp128526626-15) [   x:image] o.a.s.c.S.Request [image]  webapp=/solr path=/select params={q=*:*&facet.limit=10&facet.field=Univers&facet.field=Famille&facet.field=SousFamille&facet.field=SousSousFamille&facet.field=Marque&start=50&facet.mincount=1&rows=50&facet=true&wt=javabin&version=2} hits=948 status=0 QTime=1
2017-10-28 15:22:02.970 INFO  (qtp128526626-13) [   x:image] o.a.s.c.S.Request [image]  webapp=/solr path=/select params={q=*:*&facet.limit=10&facet.field=Univers&facet.field=Famille&facet.field=SousFamille&facet.field=SousSousFamille&facet.field=Marque&start=50&facet.mincount=1&rows=50&facet=true&wt=javabin&version=2} hits=948 status=0 QTime=1
2017-10-28 15:25:28.546 INFO  (qtp128526626-20) [   x:image] o.a.s.c.S.Request [image]  webapp=/solr path=/select params={q=*:*&facet.limit=10&facet.field=Univers&facet.field=Famille&facet.field=SousFamille&facet.field=SousSousFamille&facet.field=Marque&start=50&facet.mincount=1&rows=50&facet=true&wt=javabin&version=2} hits=948 status=0 QTime=1
2017-10-28 15:25:37.113 INFO  (qtp128526626-16) [   x:image] o.a.s.c.S.Request [image]  webapp=/solr path=/select params={q=*:*&facet.limit=10&facet.field=Univers&facet.field=Famille&facet.field=SousFamille&facet.field=SousSousFamille&facet.field=Marque&start=50&facet.mincount=1&rows=50&facet=true&wt=javabin&version=2} hits=948 status=0 QTime=1
2017-10-28 15:25:41.663 INFO  (qtp128526626-13) [   x:image] o.a.s.c.S.Request [image]  webapp=/solr path=/select params={q=*:*&facet.limit=10&facet.field=Univers&facet.field=Famille&facet.field=SousFamille&facet.field=SousSousFamille&facet.field=Marque&start=50&facet.mincount=1&rows=50&facet=true&wt=javabin&version=2} hits=948 status=0 QTime=1
2017-10-28 15:25:52.883 INFO  (qtp128526626-19) [   x:image] o.a.s.c.S.Request [image]  webapp=/solr path=/select params={q=*:*&facet.limit=10&facet.field=Univers&facet.field=Famille&facet.field=SousFamille&facet.field=SousSousFamille&facet.field=Marque&start=50&facet.mincount=1&rows=50&facet=true&wt=javabin&version=2} hits=948 status=0 QTime=1
2017-10-28 15:26:09.924 INFO  (qtp128526626-21) [   x:image] o.a.s.c.S.Request [image]  webapp=/solr path=/select params={q=*:*&facet.limit=10&facet.field=Univers&facet.field=Famille&facet.field=SousFamille&facet.field=SousSousFamille&facet.field=Marque&start=50&facet.mincount=1&rows=50&facet=true&wt=javabin&version=2} hits=948 status=0 QTime=4
2017-10-28 15:26:41.481 INFO  (qtp128526626-22) [   x:image] o.a.s.c.S.Request [image]  webapp=/solr path=/select params={q=*:*&facet.limit=10&facet.field=Univers&facet.field=Famille&facet.field=SousFamille&facet.field=SousSousFamille&facet.field=Marque&start=50&facet.mincount=1&rows=50&facet=true&wt=javabin&version=2} hits=948 status=0 QTime=0
2017-10-28 15:27:01.403 INFO  (qtp128526626-19) [   x:image] o.a.s.c.S.Request [image]  webapp=/solr path=/select params={q=*:*&facet.limit=10&facet.field=Univers&facet.field=Famille&facet.field=SousFamille&facet.field=SousSousFamille&facet.field=Marque&start=50&facet.mincount=1&rows=50&facet=true&wt=javabin&version=2} hits=948 status=0 QTime=1
2017-10-28 15:30:25.835 INFO  (qtp128526626-17) [   x:image] o.a.s.c.S.Request [image]  webapp=/solr path=/select params={q=*:*&facet.limit=10&facet.field=Univers&facet.field=Famille&facet.field=SousFamille&facet.field=SousSousFamille&facet.field=Marque&start=50&facet.mincount=1&rows=50&facet=true&wt=javabin&version=2} hits=948 status=0 QTime=1
2017-10-28 15:31:25.920 INFO  (qtp128526626-22) [   x:image] o.a.s.c.S.Request [image]  webapp=/solr path=/select params={q=*:*&facet.limit=10&facet.field=Univers&facet.field=Famille&facet.field=SousFamille&facet.field=SousSousFamille&facet.field=Marque&start=50&facet.mincount=1&rows=50&facet=true&wt=javabin&version=2} hits=948 status=0 QTime=1
2017-10-28 15:31:51.222 INFO  (qtp128526626-13) [   x:image] o.a.s.c.S.Request [image]  webapp=/solr path=/select params={q=*:*&facet.limit=10&facet.field=Univers&facet.field=Famille&facet.field=SousFamille&facet.field=SousSousFamille&facet.field=Marque&start=50&facet.mincount=1&rows=50&facet=true&wt=javabin&version=2} hits=948 status=0 QTime=1
2017-10-28 15:35:03.690 INFO  (qtp128526626-15) [   x:image] o.a.s.c.S.Request [image]  webapp=/solr path=/select params={q=*:*&facet.limit=10&facet.field=Univers&facet.field=Famille&facet.field=SousFamille&facet.field=SousSousFamille&facet.field=Marque&start=50&facet.mincount=1&rows=50&facet=true&wt=javabin&version=2} hits=948 status=0 QTime=1
2017-10-28 15:35:54.326 INFO  (qtp128526626-19) [   x:image] o.a.s.c.S.Request [image]  webapp=/solr path=/select params={q=*:*&facet.limit=10&facet.field=Univers&facet.field=Famille&facet.field=SousFamille&facet.field=SousSousFamille&facet.field=Marque&start=50&facet.mincount=1&rows=50&facet=true&wt=javabin&version=2} hits=948 status=0 QTime=0
2017-10-28 15:36:58.858 INFO  (qtp128526626-17) [   x:image] o.a.s.c.S.Request [image]  webapp=/solr path=/select params={q=*:*&facet.limit=10&facet.field=Univers&facet.field=Famille&facet.field=SousFamille&facet.field=SousSousFamille&facet.field=Marque&start=50&facet.mincount=1&rows=50&facet=true&wt=javabin&version=2} hits=948 status=0 QTime=0
2017-10-28 15:50:07.975 INFO  (qtp128526626-16) [   x:image] o.a.s.c.S.Request [image]  webapp=/solr path=/select params={q=*:*&facet.limit=10&facet.field=Univers&facet.field=Famille&facet.field=SousFamille&facet.field=SousSousFamille&facet.field=Marque&start=50&facet.mincount=1&rows=50&facet=true&wt=javabin&version=2} hits=948 status=0 QTime=0
2017-10-28 15:52:00.279 INFO  (qtp128526626-21) [   x:image] o.a.s.c.S.Request [image]  webapp=/solr path=/select params={q=*:*&facet.limit=10&facet.field=Univers&facet.field=Famille&facet.field=SousFamille&facet.field=SousSousFamille&facet.field=Marque&start=50&facet.mincount=1&rows=50&facet=true&wt=javabin&version=2} hits=948 status=0 QTime=0
2017-10-28 15:52:29.720 INFO  (qtp128526626-18) [   x:image] o.a.s.c.S.Request [image]  webapp=/solr path=/select params={q=*:*&facet.limit=10&facet.field=Univers&facet.field=Famille&facet.field=SousFamille&facet.field=SousSousFamille&facet.field=Marque&start=50&facet.mincount=1&rows=50&facet=true&wt=javabin&version=2} hits=948 status=0 QTime=0
2017-10-28 15:52:31.104 INFO  (qtp128526626-13) [   x:image] o.a.s.c.S.Request [image]  webapp=/solr path=/select params={q=*:*&facet.limit=10&facet.field=Univers&facet.field=Famille&facet.field=SousFamille&facet.field=SousSousFamille&facet.field=Marque&start=50&facet.mincount=1&rows=50&facet=true&wt=javabin&version=2} hits=948 status=0 QTime=1
2017-10-28 15:52:54.944 INFO  (qtp128526626-21) [   x:image] o.a.s.c.S.Request [image]  webapp=/solr path=/select params={q=*:*&facet.limit=10&facet.field=Univers&facet.field=Famille&facet.field=SousFamille&facet.field=SousSousFamille&facet.field=Marque&start=50&facet.mincount=1&rows=50&facet=true&wt=javabin&version=2} hits=948 status=0 QTime=0
2017-10-28 15:53:30.751 INFO  (qtp128526626-17) [   x:image] o.a.s.c.S.Request [image]  webapp=/solr path=/select params={q=*:*&facet.limit=10&facet.field=Univers&facet.field=Famille&facet.field=SousFamille&facet.field=SousSousFamille&facet.field=Marque&start=50&facet.mincount=1&rows=50&facet=true&wt=javabin&version=2} hits=948 status=0 QTime=1
2017-10-28 15:53:39.550 INFO  (qtp128526626-13) [   x:image] o.a.s.c.S.Request [image]  webapp=/solr path=/select params={q=*:*&facet.limit=10&facet.field=Univers&facet.field=Famille&facet.field=SousFamille&facet.field=SousSousFamille&facet.field=Marque&start=50&facet.mincount=1&rows=50&facet=true&wt=javabin&version=2} hits=948 status=0 QTime=0
2017-10-28 15:55:21.352 INFO  (qtp128526626-18) [   x:image] o.a.s.c.S.Request [image]  webapp=/solr path=/select params={q=*:*&facet.limit=10&facet.field=Univers&facet.field=Famille&facet.field=SousFamille&facet.field=SousSousFamille&facet.field=Marque&start=50&facet.mincount=1&rows=50&facet=true&wt=javabin&version=2} hits=948 status=0 QTime=0
2017-10-28 15:56:27.481 INFO  (qtp128526626-16) [   x:image] o.a.s.c.S.Request [image]  webapp=/solr path=/select params={q=*:*&facet.limit=10&facet.field=Univers&facet.field=Famille&facet.field=SousFamille&facet.field=SousSousFamille&facet.field=Marque&start=50&facet.mincount=1&rows=50&facet=true&wt=javabin&version=2} hits=948 status=0 QTime=0
2017-10-28 15:59:43.279 INFO  (qtp128526626-17) [   x:image] o.a.s.c.S.Request [image]  webapp=/solr path=/select params={q=*:*&facet.limit=10&facet.field=Univers&facet.field=Famille&facet.field=SousFamille&facet.field=SousSousFamille&facet.field=Marque&start=50&facet.mincount=1&rows=50&facet=true&wt=javabin&version=2} hits=948 status=0 QTime=0
2017-10-28 16:02:13.045 INFO  (qtp128526626-20) [   x:image] o.a.s.c.S.Request [image]  webapp=/solr path=/select params={q=*:*&facet.limit=10&facet.field=Univers&facet.field=Famille&facet.field=SousFamille&facet.field=SousSousFamille&facet.field=Marque&start=50&facet.mincount=1&rows=50&facet=true&wt=javabin&version=2} hits=948 status=0 QTime=0
