2017-10-31 07:31:24.722 INFO  (main) [   ] o.e.j.s.Server jetty-9.3.14.v20161028
2017-10-31 07:31:24.939 INFO  (main) [   ] o.a.s.s.SolrDispatchFilter  ___      _       Welcome to Apache Solr™ version 7.0.1
2017-10-31 07:31:24.940 INFO  (main) [   ] o.a.s.s.SolrDispatchFilter / __| ___| |_ _   Starting in standalone mode on port 8983
2017-10-31 07:31:24.940 INFO  (main) [   ] o.a.s.s.SolrDispatchFilter \__ \/ _ \ | '_|  Install dir: /home/pierre/workspace/rpu-images-solr/solr, Default config dir: /home/pierre/workspace/rpu-images-solr/solr/server/solr/configsets/_default/conf
2017-10-31 07:31:24.950 INFO  (main) [   ] o.a.s.s.SolrDispatchFilter |___/\___/_|_|    Start time: 2017-10-31T07:31:24.940Z
2017-10-31 07:31:24.951 INFO  (main) [   ] o.a.s.s.StartupLoggingUtils Property solr.log.muteconsole given. Muting ConsoleAppender named CONSOLE
2017-10-31 07:31:24.964 INFO  (main) [   ] o.a.s.c.SolrResourceLoader Using system property solr.solr.home: /home/pierre/workspace/rpu-images-solr/solr/server/solr
2017-10-31 07:31:24.968 INFO  (main) [   ] o.a.s.c.SolrXmlConfig Loading container configuration from /home/pierre/workspace/rpu-images-solr/solr/server/solr/solr.xml
2017-10-31 07:31:25.329 INFO  (main) [   ] o.a.s.c.CorePropertiesLocator Found 1 core definitions underneath /home/pierre/workspace/rpu-images-solr/solr/server/solr
2017-10-31 07:31:25.332 INFO  (main) [   ] o.a.s.c.CorePropertiesLocator Cores are: [image]
2017-10-31 07:31:25.335 INFO  (coreLoadExecutor-6-thread-1) [   ] o.a.s.c.TransientSolrCoreCacheDefault Allocating transient cache for 2147483647 transient cores
2017-10-31 07:31:25.373 INFO  (main) [   ] o.e.j.s.Server Started @987ms
2017-10-31 07:31:25.374 INFO  (coreLoadExecutor-6-thread-1) [   x:image] o.a.s.c.SolrResourceLoader [image] Added 51 libs to classloader, from paths: [/home/pierre/workspace/rpu-images-solr/solr/contrib/clustering/lib, /home/pierre/workspace/rpu-images-solr/solr/contrib/extraction/lib, /home/pierre/workspace/rpu-images-solr/solr/contrib/langid/lib, /home/pierre/workspace/rpu-images-solr/solr/contrib/velocity/lib, /home/pierre/workspace/rpu-images-solr/solr/dist]
2017-10-31 07:31:25.496 INFO  (coreLoadExecutor-6-thread-1) [   x:image] o.a.s.c.SolrConfig Using Lucene MatchVersion: 7.0.1
2017-10-31 07:31:25.601 INFO  (coreLoadExecutor-6-thread-1) [   x:image] o.a.s.s.IndexSchema [image] Schema name=default-config
2017-10-31 07:31:25.945 INFO  (coreLoadExecutor-6-thread-1) [   x:image] o.a.s.s.IndexSchema Loaded schema default-config/1.6 with uniqueid field id
2017-10-31 07:31:25.964 INFO  (coreLoadExecutor-6-thread-1) [   x:image] o.a.s.c.CoreContainer Creating SolrCore 'image' using configuration from instancedir /home/pierre/workspace/rpu-images-solr/solr/server/solr/image, trusted=true
2017-10-31 07:31:25.986 INFO  (coreLoadExecutor-6-thread-1) [   x:image] o.a.s.c.SolrCore solr.RecoveryStrategy.Builder
2017-10-31 07:31:25.989 INFO  (coreLoadExecutor-6-thread-1) [   x:image] o.a.s.c.SolrCore [[image] ] Opening new SolrCore at [/home/pierre/workspace/rpu-images-solr/solr/server/solr/image], dataDir=[/home/pierre/workspace/rpu-images-solr/solr/server/solr/image/data/]
2017-10-31 07:31:26.010 INFO  (coreLoadExecutor-6-thread-1) [   x:image] o.a.s.r.XSLTResponseWriter xsltCacheLifetimeSeconds=5
2017-10-31 07:31:26.196 INFO  (coreLoadExecutor-6-thread-1) [   x:image] o.a.s.u.UpdateHandler Using UpdateLog implementation: org.apache.solr.update.UpdateLog
2017-10-31 07:31:26.196 INFO  (coreLoadExecutor-6-thread-1) [   x:image] o.a.s.u.UpdateLog Initializing UpdateLog: dataDir= defaultSyncLevel=FLUSH numRecordsToKeep=100 maxNumLogsToKeep=10 numVersionBuckets=65536
2017-10-31 07:31:26.210 INFO  (coreLoadExecutor-6-thread-1) [   x:image] o.a.s.u.CommitTracker Hard AutoCommit: if uncommited for 15000ms; 
2017-10-31 07:31:26.210 INFO  (coreLoadExecutor-6-thread-1) [   x:image] o.a.s.u.CommitTracker Soft AutoCommit: disabled
2017-10-31 07:31:26.278 INFO  (coreLoadExecutor-6-thread-1) [   x:image] o.a.s.s.SolrIndexSearcher Opening [Searcher@6e583461[image] main]
2017-10-31 07:31:26.286 INFO  (coreLoadExecutor-6-thread-1) [   x:image] o.a.s.r.ManagedResourceStorage File-based storage initialized to use dir: /home/pierre/workspace/rpu-images-solr/solr/server/solr/image/conf
2017-10-31 07:31:26.296 INFO  (coreLoadExecutor-6-thread-1) [   x:image] o.a.s.h.c.SpellCheckComponent Initializing spell checkers
2017-10-31 07:31:26.300 INFO  (coreLoadExecutor-6-thread-1) [   x:image] o.a.s.s.DirectSolrSpellChecker init: {name=default,field=_text_,classname=solr.DirectSolrSpellChecker,distanceMeasure=internal,accuracy=0.5,maxEdits=2,minPrefix=1,maxInspections=5,minQueryLength=4,maxQueryFrequency=0.01}
2017-10-31 07:31:26.308 INFO  (coreLoadExecutor-6-thread-1) [   x:image] o.a.s.h.ReplicationHandler Commits will be reserved for  10000
2017-10-31 07:31:26.337 INFO  (searcherExecutor-7-thread-1-processing-x:image) [   x:image] o.a.s.c.QuerySenderListener QuerySenderListener sending requests to Searcher@6e583461[image] main{ExitableDirectoryReader(UninvertingDirectoryReader(Uninverting(_1om(7.0.1):C946) Uninverting(_1on(7.0.1):C1) Uninverting(_1oo(7.0.1):C1)))}
2017-10-31 07:31:26.337 INFO  (searcherExecutor-7-thread-1-processing-x:image) [   x:image] o.a.s.c.QuerySenderListener QuerySenderListener done.
2017-10-31 07:31:26.337 INFO  (searcherExecutor-7-thread-1-processing-x:image) [   x:image] o.a.s.h.c.SpellCheckComponent Loading spell index for spellchecker: default
2017-10-31 07:31:26.340 INFO  (searcherExecutor-7-thread-1-processing-x:image) [   x:image] o.a.s.c.SolrCore [image] Registered new searcher Searcher@6e583461[image] main{ExitableDirectoryReader(UninvertingDirectoryReader(Uninverting(_1om(7.0.1):C946) Uninverting(_1on(7.0.1):C1) Uninverting(_1oo(7.0.1):C1)))}
2017-10-31 07:44:38.518 INFO  (qtp128526626-15) [   x:image] o.a.s.c.S.Request [image]  webapp=/solr path=/select params={q=*:*&facet.limit=10&facet.field=Univers&facet.field=Famille&facet.field=SousFamille&facet.field=SousSousFamille&facet.field=Marque&start=50&facet.mincount=1&rows=50&facet=true&wt=javabin&version=2} hits=948 status=0 QTime=45
2017-10-31 07:49:09.522 INFO  (qtp128526626-22) [   x:image] o.a.s.c.S.Request [image]  webapp=/solr path=/select params={q=Univers:Femme&facet.limit=10&facet.field=Famille&facet.field=SousFamille&facet.field=SousSousFamille&facet.field=Marque&start=50&facet.mincount=1&rows=50&facet=true&wt=javabin&version=2} hits=811 status=0 QTime=7
2017-10-31 21:41:18.695 INFO  (Thread-0) [   ] o.a.s.c.CoreContainer Shutting down CoreContainer instance=1076607567
2017-10-31 21:41:18.696 INFO  (Thread-0) [   ] o.a.s.m.SolrMetricManager Closing metric reporters for registry=solr.node, tag=null
2017-10-31 21:41:18.696 INFO  (Thread-0) [   ] o.a.s.m.SolrMetricManager Closing metric reporters for registry=solr.jvm, tag=null
2017-10-31 21:41:18.696 INFO  (Thread-0) [   ] o.a.s.m.SolrMetricManager Closing metric reporters for registry=solr.jetty, tag=null
2017-10-31 21:41:18.697 INFO  (coreCloseExecutor-13-thread-1) [   x:image] o.a.s.c.SolrCore [image]  CLOSING SolrCore org.apache.solr.core.SolrCore@643444c7
2017-10-31 21:41:18.697 INFO  (coreCloseExecutor-13-thread-1) [   x:image] o.a.s.m.SolrMetricManager Closing metric reporters for registry=solr.core.image, tag=1681147079
